{
    "16_field1_init_2": {
      "commands": {
        "cmd": "python com-JD1204-m-0217.py",
        "isshell": true
      },
      "excom": "taskkill /f /im matlab.exe",
      "workdir": "D:/lijiajia/NT_Dynamics/tianjin_storage_UI/JD1204",
      "delay":[0,100]
    },
    "16_field1_run_3": {
      "commands": {
        "cmd": "python cmd-JD1204-m-0217.py",
        "isshell": true
      },
      "workdir": "D:/lijiajia/NT_Dynamics/tianjin_storage_UI"
    },
    "16_field2X_init1_2": {
      "commands": {
        "cmd": "python com-JD1204-m-0217.py",
        "isshell": true
      },
      "excom": "taskkill /f /im matlab.exe",
      "workdir": "D:/projects/farm/nongtian-3Tractor/donglixue/anliyi/tianjin_storage_UI/tianjin_storage_UI/JD1204"
    },
    "16_field2X_init2_3": {
      "commands": {
        "cmd": "python com-M300-m-0303.py",
        "isshell": true
      },
      "excom": "taskkill /f /im matlab.exe",
      "workdir": "D:/projects/farm/nongtian-3Tractor/donglixue/anliyi/tianjin_storage_UI/tianjin_storage_UI/M300 point control"
    },
    "16_field2X_run1_4": {
      "commands": {
        "cmd": "python com-JD1204-m-0217.py",
        "isshell": true
      },
      "workdir": "D:/projects/farm/nongtian-3Tractor/donglixue/anliyi/tianjin_storage_UI/tianjin_storage_UI"
    },
    "16_field2X_run2_5": {
      "commands": {
        "cmd": "python cmd-M300-m-v2-0217.py",
        "isshell": true
      },
      "workdir": "D:/projects/farm/nongtian-3Tractor/donglixue/anliyi/tianjin_storage_UI/tianjin_storage_UI"
    },
    "16_field2Y_init_2": {
      "commands": {
        "cmd": "python init-JD1204.py",
        "isshell": true
      },
      "excom": "taskkill /f /im matlab.exe",
      "workdir": "D:/projects/farm/nongtian-3Tractor/donglixue/anlier/JD1204_case2/JD1204_case2"
    },
    "16_field2Y_autopilot_3": {
      "commands": {
        "cmd": "python autopilot.py",
        "isshell": true
      },
      "excom": "taskkill /f /im matlab.exe",
      "workdir": "D:/projects/farm/nongtian-3Tractor/donglixue/anlier/JD1204_case2/JD1204_case2"
    },
    "16_desert1_startall_2": {
      "commands": {
        "cmd": "python jiaohu-collector.py",
        "isshell": true
      },
      "excom": "taskkill /f /im cmd.exe && taskkill /f /im matlab.exe",
      "workdir": "D:/projects/desert/anli1"
    },
    "16_desert2_startall_2": {
      "commands": {
        "cmd": "python FHYCollector.py",
        "isshell": true
      },
      "excom": "taskkill /f /im cmd.exe && taskkill /f /im matlab.exe",
      "workdir": "D:/projects/desert/anli2"
    },
    "16_desert3_startall_2": {
      "commands": {
        "cmd": "python FHYCollector.py",
        "isshell": true
      },
      "excom": "taskkill /f /im cmd.exe && taskkill /f /im matlab.exe",
      "workdir": "D:/projects/desert/anli3"
    },
    "16_desert4_startall_2": {
      "commands": {
        "cmd": "python FHYCollector.py",
        "isshell": true
      },
      "excom": "taskkill /f /im cmd.exe && taskkill /f /im matlab.exe",
      "workdir": "D:/projects/desert/anli4"
    },
    "16_desert5_startall_2": {
      "commands": {
        "cmd": "python jiaohu-collector.py",
        "isshell": true
      },
      "excom": "taskkill /f /im cmd.exe && taskkill /f /im matlab.exe",
      "workdir": "D:/projects/desert/anli5"
    },
    "XXX":{}
  }